Capítulo 2 Análisis de Componentes Principales | AMAT- Ciencia de Datos y Machine Learning
…
pca_recipe <- recipe(IM ~ ., data = indice_marg) %>%
  update_role(NOM_ENT, GM, new_role = "id") %>%
  step_normalize(ANALF, SPRIM, OVSDE, OVSEE, OVSAE, VHAC, OVPT, PL_5000, PO2SM) %>%
  step_pca(ANALF, SPRIM, OVSDE, OVSEE, OVSAE, VHAC, OVPT, PL_5000, PO2SM, num_comp=9, res="res") %>% 
  step_rm(LUGAR, AÑO, POB_TOT) %>% 
  prep()

juice(pca_recipe)

## # A tibble: 32 × 13
##    CVE_ENT GM     NOM_ENT      IM    PC1     PC2     PC3     PC4     PC5     PC6
##    <fct>   <fct>  <fct>     <dbl>  <dbl>   <dbl>   <dbl>   <dbl>   <dbl>   <dbl>
##  1 01      Bajo   Aguasc… -0.911  -2.34  -0.227   0.372   0.492   0.264   0.0764
##  2 02      Muy b… Baja C… -1.14   -2.93   0.595  -0.0597 -0.492   0.291  -0.0508
##  3 03      Bajo   Baja C… -0.681  -1.75   1.37   -0.683  -0.400  -0.304   0.160 
##  4 04      Alto   Campec…  0.434   1.12  -0.819  -0.151  -0.271  -0.929   0.178 
##  5 05      Muy b… Coahui… -1.14   -2.93  -0.144   0.157  -0.133   0.0419 -0.0786
##  6 06      Bajo   Colima  -0.779  -2.00   0.0316  0.552  -0.136   0.320  -0.729 
##  7 07      Muy a… Chiapas  2.32    5.96   0.132   1.36   -0.0122 -0.673  -0.471 
##  8 08      Bajo   Chihua… -0.520  -1.34   1.05   -1.27    0.633  -0.646  -0.387 
##  9 09      Muy b… Distri… -1.48   -3.81   0.110   0.159  -0.453   0.205  -0.355 
## 10 10      Medio  Durango  0.0525  0.135  0.675  -1.50    0.929  -0.448   0.146 
## # … with 22 more rows, and 3 more variables: PC7 <dbl>, PC8 <dbl>, PC9 <dbl>
## # ℹ Use `print(n = ...)` to see more rows, and `colnames()` to see all variable names
…
La segunda opción elegirá tantas componentes como sean necesarias hasta alcanzar el hiperparámetro mínimo indicado. A continuación se ejemplifica:

Caso 1:

pca_recipe <- recipe(IM ~ ., data = indice_marg) %>%
  update_role(NOM_ENT, GM, new_role = "id") %>%
  step_normalize(ANALF, SPRIM, OVSDE, OVSEE, OVSAE, VHAC, OVPT, PL_5000, PO2SM) %>%
  step_pca(ANALF, SPRIM, OVSDE, OVSEE, OVSAE, VHAC, OVPT, PL_5000, PO2SM,num_comp=2) %>% 
  step_rm(LUGAR, AÑO, POB_TOT) %>% 
  prep()

juice(pca_recipe)

## # A tibble: 32 × 6
##    CVE_ENT GM       NOM_ENT                   IM    PC1     PC2
##    <fct>   <fct>    <fct>                  <dbl>  <dbl>   <dbl>
##  1 01      Bajo     Aguascalientes       -0.911  -2.34  -0.227 
##  2 02      Muy bajo Baja California      -1.14   -2.93   0.595 
##  3 03      Bajo     Baja California Sur  -0.681  -1.75   1.37  
##  4 04      Alto     Campeche              0.434   1.12  -0.819 
##  5 05      Muy bajo Coahuila de Zaragoza -1.14   -2.93  -0.144 
##  6 06      Bajo     Colima               -0.779  -2.00   0.0316
##  7 07      Muy alto Chiapas               2.32    5.96   0.132 
##  8 08      Bajo     Chihuahua            -0.520  -1.34   1.05  
##  9 09      Muy bajo Distrito Federal     -1.48   -3.81   0.110 
## 10 10      Medio    Durango               0.0525  0.135  0.675 
## # … with 22 more rows
## # ℹ Use `print(n = ...)` to see more rows

Caso 2:

pca_recipe <- recipe(IM ~ ., data = indice_marg) %>%
  update_role(NOM_ENT, GM, new_role = "id") %>%
  step_normalize(ANALF, SPRIM, OVSDE, OVSEE, OVSAE, VHAC, OVPT, PL_5000, PO2SM) %>%
  step_pca(ANALF, SPRIM, OVSDE, OVSEE, OVSAE, VHAC, OVPT, PL_5000, PO2SM,threshold=0.90) %>% 
  step_rm(LUGAR, AÑO, POB_TOT) %>% 
  prep()

juice(pca_recipe)

## # A tibble: 32 × 8
##    CVE_ENT GM       NOM_ENT                   IM    PC1     PC2     PC3     PC4
##    <fct>   <fct>    <fct>                  <dbl>  <dbl>   <dbl>   <dbl>   <dbl>
##  1 01      Bajo     Aguascalientes       -0.911  -2.34  -0.227   0.372   0.492 
##  2 02      Muy bajo Baja California      -1.14   -2.93   0.595  -0.0597 -0.492 
##  3 03      Bajo     Baja California Sur  -0.681  -1.75   1.37   -0.683  -0.400 
##  4 04      Alto     Campeche              0.434   1.12  -0.819  -0.151  -0.271 
##  5 05      Muy bajo Coahuila de Zaragoza -1.14   -2.93  -0.144   0.157  -0.133 
##  6 06      Bajo     Colima               -0.779  -2.00   0.0316  0.552  -0.136 
##  7 07      Muy alto Chiapas               2.32    5.96   0.132   1.36   -0.0122
##  8 08      Bajo     Chihuahua            -0.520  -1.34   1.05   -1.27    0.633 
##  9 09      Muy bajo Distrito Federal     -1.48   -3.81   0.110   0.159  -0.453 
## 10 10      Medio    Durango               0.0525  0.135  0.675  -1.50    0.929 
## # … with 22 more rows
## # ℹ Use `print(n = ...)` to see more rows
…
